<?xml version="1.0" standalone="no"?>
<!DOCTYPE svg PUBLIC "-//W3C//DTD SVG 1.1//EN" "http://www.w3.org/Graphics/SVG/1.1/DTD/svg11.dtd" >
<svg xmlns="http://www.w3.org/2000/svg">
<metadata>Generated by IcoMoon</metadata>
<defs>
<font id="icomoon" horiz-adv-x="512">
<font-face units-per-em="512" ascent="480" descent="-32" />
<missing-glyph horiz-adv-x="512" />
<glyph unicode="&#x20;" d="" horiz-adv-x="256" />
<glyph unicode="&#xe600;" d="M106 191.296l-52.208-158.976 69.776 70.032c-4.8 12.112-3.616 32.8 6.192 42.592 13.136 13.152 34.768 12.848 47.904-0.304 13.152-13.152 13.856-35.168 0.72-48.32-10-10-31.968-10.576-44.224-5.392l-69.168-69.36 155.216 54.528 56.528 101.824-68.864 67.936-101.872-54.56zM367.696 426.416c0 0-96.176-96.16-111.008-111.008-14.864-14.848-22.624-70.704-22.624-70.704l43.12-43.136c0 0 54.448 7.776 70 23.344 15.568 15.552 111.008 111.008 111.008 111.008l-90.496 90.496z" />
<glyph unicode="&#xe601;" d="M412.496 325.824c2.848 0.576 7.072 1.504 11.84 2.544h36.944l5.728 8.496c0.128 0.048 0.336 0.096 0.448 0.096l14.304 20.64c-0.192 0-0.544 0.032-0.688 0.032l1.504 2.224h-200.176l7.696-31.488h54.64l-91.92-82.976c-18.768 25.904-62.736 79.888-93.408 124.56h68.816v23.984l0.784 5.296c-0.208 0.032-0.592 0.096-0.784 0.096v2.16h-228.224v-31.504h67.68c26.272-20.528 126.736-146 130.912-158.512 1.664-11.728 3.216-80.88-1.712-86.112-9.872-10.432-54.928-7.664-65.792-8.432l-3.744-21.44c19.84-0.592 84.448 1.616 104.512 1.616 39.568 0 108.864 0.176 118.656-0.576l1.216 22.464c-10 1.712-64.544 0.224-72.080 1.936-1.664 10.896-3.536 83.68-1.84 91.216 7.536 21.728 122.176 110.304 134.752 113.68h-0.064zM445.728 153.728l30.656-2.416 35.728 137.968c-5.968 0.208-60.176 5.328-67.216 6.688l0.832-142.24zM440.432 131.616l0.176-33.664 15.504-1.36 16.784-1.232 4.928 32.976-17.68 0.848-19.712 2.432z" />
<glyph unicode="&#xe602;" d="M223.904 141.36c-13.44-70.48-29.856-138.064-78.496-173.36-15.008 106.544 22.048 186.544 39.248 271.488-29.344 49.408 3.536 148.784 65.44 124.288 76.176-30.128-65.952-183.632 29.456-202.8 99.616-20 140.256 172.8 78.496 235.488-89.248 90.576-259.792 2.096-238.8-127.52 5.088-31.696 37.84-41.328 13.088-85.040-57.12 12.64-74.16 57.68-71.968 117.76 3.536 98.272 88.32 167.088 173.36 176.608 107.568 12.064 208.512-39.472 222.416-140.64 15.696-114.176-48.496-237.856-163.552-228.944-31.152 2.368-44.24 17.824-68.688 32.672z" />
<glyph unicode="&#xe603;" d="M354.448 477.696c28.096 6.672 59.296-1.408 79.616-22.016 25.36-23.936 32.56-64.032 18.128-95.472-11.12-23.952-33.664-42.88-59.584-48.176-16.736-2.784-34.544-2.512-50.4 4.432-25.872 10.592-45.392 34.816-51.232 62.112-1.104 11.424-1.104 23.12 0.512 34.528 6.752 31.184 32.080 57.056 62.96 64.592v0 0zM204.096 447.072c37.296 11.136 79.6-21.728 77.136-60.72 1.392-28.96-22.016-55.696-50.112-60.704-25.632-5.296-53.744 7.776-65.984 30.928-6.688 11.392-8.368 25.040-7.28 38.144 2.256 25.072 22.288 46.512 46.24 52.352v0 0zM87.168 432.864c29.216 5.584 59.312-19.488 58.448-49.28 1.952-30.64-29.488-57.36-59.312-50.944-28.928 3.872-48.416 36.208-40.064 63.76 5.264 18.672 21.712 33.696 40.928 36.464v0 0zM42.336 296.704c17.248 21.984 48.976 30.336 75.168 21.168 16.72-5.328 29.504-18.112 39.248-32.32 17.568 16.96 41.232 28.4 66 26.464 31.744 0 58.992-21.152 74.080-47.6 16.112 12.256 33.952 23.104 54.304 27.008 37.008 7.776 77.952-3.92 104.704-31.216 21.984-21.408 35.344-51.776 34.464-82.72 0.832-69.856 0.592-139.504 0.592-209.344-77.392 0-154.864 0-232.496 0 0 35.376 0.24 70.448 0 105.52-41.472 0.288-82.72 0-124.16 0.288 0 17.536 0 35.088-0.32 52.592-36.192 0-72.64 0-108.832 0v129.76c2.496 14.768 6.976 29.504 17.264 40.368v0 0.032z" />
<glyph unicode="&#xe604;" d="M287.935-32h-95.935v256h-64v88.225l64 0.029-0.104 51.976c0 71.976 19.517 115.77 104.299 115.77h70.588v-88.242h-44.115c-33.016 0-34.603-12.328-34.603-35.342l-0.131-44.162h79.345l-9.352-88.225-69.927-0.029-0.065-256z" />
<glyph unicode="&#xe605;" d="M512 382.791c-18.838-8.354-39.082-14.001-60.33-16.54 21.686 13 38.343 33.585 46.186 58.115-20.298-12.039-42.778-20.78-66.705-25.49-19.16 20.415-46.461 33.17-76.673 33.17-58.011 0-105.044-47.029-105.044-105.039 0-8.233 0.929-16.25 2.72-23.939-87.3 4.382-164.701 46.2-216.509 109.753-9.042-15.514-14.223-33.558-14.223-52.809 0-36.444 18.544-68.596 46.73-87.433-17.219 0.546-33.416 5.271-47.577 13.139-0.010-0.438-0.010-0.878-0.010-1.321 0-50.894 36.209-93.348 84.261-103-8.813-2.4-18.094-3.686-27.674-3.686-6.769 0-13.349 0.66-19.764 1.886 13.368-41.73 52.16-72.103 98.126-72.948-35.95-28.175-81.243-44.967-130.458-44.967-8.479 0-16.84 0.497-25.058 1.47 46.486-29.805 101.701-47.197 161.021-47.197 193.211 0 298.868 160.062 298.868 298.872 0 4.554-0.103 9.084-0.305 13.59 20.528 14.81 38.336 33.31 52.418 54.374z" />
<glyph unicode="&#xe606;" d="M68.147 104.535c-37.598 0-68.146-30.667-68.146-68.038 0-37.577 30.55-67.901 68.146-67.901 37.733 0 68.247 30.324 68.247 67.901-0.001 37.371-30.512 68.038-68.247 68.038zM0.078 306.035v-98.129c63.892 0 123.979-24.986 169.229-70.256 45.192-45.159 70.141-105.518 70.141-169.65h98.561c-0.001 186.41-151.641 338.035-337.931 338.035zM0.194 480v-98.178c227.891 0 413.378-185.667 413.378-413.822h98.428c0 282.235-229.627 512-511.806 512z" />
<glyph unicode="&#xe607;" d="M0 325.815l20.797-27.272c0 0 42.885 33.804 57.18 16.901 14.294-16.901 68.868-220.978 87.085-258.623 15.9-33.015 59.759-76.66 107.857-45.491 48.068 31.17 207.92 167.643 236.533 328.808 28.59 161.113-192.36 127.363-215.765-13.005 58.495 35.118 89.718-14.269 59.785-70.186-29.879-55.862-57.18-92.296-71.476-92.296-14.269 0-25.245 37.384-41.594 102.723-16.899 67.551-16.796 189.23-87.058 175.435-66.259-13.006-153.344-116.994-153.344-116.994z" />
<glyph unicode="&#xe608;" d="M0 208c0 61.856 50.144 112 112 112s112-50.144 112-112c0-61.856-50.144-112-112-112-61.856 0-112 50.144-112 112zM288 208c0 61.856 50.144 112 112 112s112-50.144 112-112c0-61.856-50.144-112-112-112-61.856 0-112 50.144-112 112z" />
<glyph unicode="&#xe609;" d="M256.001-32c-141.16 0-256.001 114.841-256.001 256s114.841 256 256.001 256c141.161 0 255.999-114.841 255.999-256s-114.838-256-255.999-256zM471.899 188.957c-7.481 2.36-67.682 20.316-136.205 9.349 28.602-78.593 40.239-142.604 42.479-155.904 49.057 33.168 83.979 85.713 93.726 146.555zM341.416 22.381c-3.253 19.185-15.949 86.045-46.649 165.82-0.48-0.164-0.961-0.32-1.44-0.486-123.335-42.979-167.608-128.508-171.543-136.552 37.075-28.912 83.668-46.16 134.218-46.16 30.29 0 59.159 6.195 85.414 17.378zM93.549 77.461c4.954 8.48 64.965 107.842 177.738 144.297 2.852 0.92 5.724 1.785 8.618 2.6-5.49 12.422-11.47 24.857-17.728 37.108-109.199-32.68-215.162-31.315-224.73-31.118-0.066-2.221-0.111-4.445-0.111-6.683 0-56.16 21.29-107.437 56.213-146.204zM41.956 268.452c9.779-0.13 99.868-0.521 202.151 26.641-36.23 64.406-75.306 118.555-81.071 126.46-61.174-28.854-106.901-85.248-121.080-153.101zM204.759 436.25c6.044-8.092 45.759-62.174 81.59-128.007 77.754 29.142 110.67 73.385 114.604 78.987-38.615 34.259-89.391 55.1-144.951 55.1-17.645 0-34.8-2.116-51.243-6.080zM425.261 361.944c-4.608-6.237-41.252-53.209-122.101-86.217 5.089-10.416 9.967-21.009 14.508-31.672 1.608-3.78 3.177-7.542 4.709-11.285 72.759 9.149 145.052-5.514 152.263-7.039-0.484 51.612-18.925 99.005-49.379 136.213z" />
<glyph unicode="&#xe60b;" d="M478.898 288h-28.703c-17.583 0-32.994 14.871-34.195 32v0c0.002 91.334-73.629 160-165.595 160h-83.912c-91.906 0-166.428-74-166.493-165.333v-181.399c0-91.327 74.587-165.268 166.492-165.268h179.21c91.974 0 166.298 73.941 166.298 165.268v117.191c0 18.251-14.72 37.541-33.102 37.541zM160 352h96c17.6 0 32-14.4 32-32s-14.4-32-32-32h-96c-17.6 0-32 14.4-32 32s14.4 32 32 32zM352 96h-192c-17.6 0-32 14.4-32 32s14.4 32 32 32h192c17.6 0 32-14.4 32-32s-14.4-32-32-32z" />
<glyph unicode="&#xe60c;" d="M445.98 222.898c-9.043 0-17.674-1.76-25.532-4.928-5.253 57.179-55.145 102.030-116 102.030-14.893 0-29.341-2.815-42.159-7.582-4.98-1.851-6.289-3.76-6.289-7.458v-201.357c0-3.883 3.12-7.117 7.062-7.498 0.168-0.017 181.768-0.105 182.945-0.105 36.452 0 65.993 28.408 65.993 63.447s-29.567 63.451-66.020 63.451zM200 96h16l8 112.11-8 111.89h-16l-8-111.89zM152 96h-16l-8 81.375 8 78.625h16l8-80zM72 96h16l8 64-8 64h-16l-8-64zM8 128h16l8 32-8 32h-16l-8-32z" />
<glyph unicode="&#xe60d;" d="M128 160c0 17.673 14.327 32 32 32s32-14.327 32-32c0-17.673-14.327-32-32-32-17.673 0-32 14.327-32 32zM320 160c0 17.673 14.327 32 32 32s32-14.327 32-32c0-17.673-14.327-32-32-32-17.673 0-32 14.327-32 32zM321.556 91.611c8.241 6.493 20.188 5.077 26.682-3.166 6.494-8.243 5.076-20.189-3.167-26.683-22.948-18.079-57.911-29.762-89.071-29.762-31.161 0-66.124 11.683-89.072 29.761-8.243 6.495-9.66 18.441-3.166 26.684 6.495 8.241 18.441 9.659 26.683 3.166 13.211-10.409 39.361-21.611 65.555-21.611 26.194 0 52.344 11.202 65.556 21.611zM512 224c0 35.346-28.654 64-64 64-24.058 0-44.996-13.285-55.926-32.91-32.896 17.997-72.976 29.623-116.64 32.304l38.191 85.763 73.097-21.1c6.576-18.671 24.359-32.057 45.278-32.057 26.51 0 48 21.49 48 48s-21.49 48-48 48c-18.28 0-34.171-10.221-42.277-25.257l-81.453 23.512c-9.112 2.629-18.769-1.861-22.626-10.526l-51.885-116.513c-42.569-2.998-81.631-14.511-113.818-32.118-10.932 19.625-31.883 32.902-55.941 32.902-35.346 0-64-28.654-64-64 0-26.156 15.701-48.627 38.186-58.551-4.035-12.014-6.186-24.552-6.186-37.449 0-88.365 100.288-160 224-160 123.711 0 224 71.635 224 160 0 12.896-2.15 25.431-6.184 37.443 22.485 9.925 38.184 32.401 38.184 58.557zM432 386c9.941 0 18-8.059 18-18s-8.059-18-18-18-18 8.059-18 18 8.059 18 18 18zM32 224c0 17.645 14.355 32 32 32 12.754 0 23.786-7.502 28.923-18.323-16.724-12.683-30.583-27.313-40.833-43.369-11.762 4.735-20.090 16.256-20.090 29.692zM256 6c-102.725 0-186 54.621-186 122s83.275 122 186 122c102.725 0 186-54.621 186-122s-83.275-122-186-122zM459.91 194.308c-10.25 16.056-24.109 30.686-40.833 43.369 5.138 10.821 16.169 18.323 28.923 18.323 17.645 0 32-14.355 32-32 0-13.436-8.328-24.957-20.090-29.692z" />
<glyph unicode="&#xe60e;" d="M440.317 414.613c12.849-6.288 24.047-15.243 32.251-26.241 17.268-23.15 22.118-54.686 14.418-93.733-7.78-39.513-25.208-72.867-50.583-97.022-4.641-4.851-9.611-9.373-14.902-13.54-27.178-21.401-61.499-32.714-99.254-32.714h-120.030l-32.282-151.363h-66.212l5.043 23.15h23.064l32.282 151.363h94.135c90.125 0 165.469 55.539 185.629 149.968 22.861 106.917-53.799 155.519-119.705 155.519h-224.639l-99.532-456.85h76.016l-12.016-55.15h131.83l32.282 151.363h94.135c90.125 0 165.469 55.539 185.629 149.968 16.858 78.84-20.402 125.966-67.559 145.282zM211.172 386.959h64.566c32.296 0 53.801-27.769 44.393-62.478-8.068-34.72-41.693-62.488-75.32-62.488h-61.879l28.24 124.966z" />
<glyph unicode="&#xe60f;" d="M115.872 421.568c0-30.224-22.32-54.672-59.024-54.672-34.528 0-56.848 24.464-56.848 54.672 0 30.928 23.056 54.688 58.304 54.688s56.864-23.776 57.568-54.688zM2.912-28.224v351.904h109.376v-351.904h-109.376zM177.744 211.408c0 43.888-1.456 80.608-2.896 112.256h94.992l5.072-48.944h2.144c14.4 23.056 49.664 56.848 108.672 56.848 71.968 0 125.92-48.224 125.92-151.856v-207.968h-109.36v195.008c0 45.376-15.856 76.304-55.44 76.304-30.224 0-48.176-20.848-56.112-40.992-2.896-7.216-3.6-17.28-3.6-27.344v-202.976h-109.376l-0.016 239.664z" />
<glyph unicode="&#xe610;" d="M351.216 122.064h25.936v-106.416h-25.936v106.416zM123.472 128.72h-34.096c-37.456 0-68.096-28.752-68.096-63.856v-47.888c0-8.8 7.664-15.968 17.040-15.968h136.192c9.376 0 17.040 7.168 17.040 15.968v47.888c0.016 35.104-30.624 63.856-68.080 63.856zM170.288 22.288h-127.712v42.576c0 23.472 20.992 42.56 46.816 42.56h34.096c25.808 0 46.816-19.088 46.816-42.56v-42.576zM106.4 401.872c-45.584 0-106.4-60.8-106.4-60.8v-149.376h212.864v149.376c0 0-60.832 60.8-106.464 60.8zM191.568 212.976h-170.272v118.992c22.64 20.912 60.864 48.624 85.12 48.624 24.304 0 62.528-27.696 85.168-48.624v-118.992zM255.424 448v-191.568h191.568v191.568h-191.568zM425.712 277.712h-148.992v148.992h148.992v-148.992zM447.008 213.184h21.744v-212.192h-21.744v212.192zM233.68 213.184h21.744v-212.192h-21.744v212.192zM234.8 22.752h218.64v-21.744h-218.64v21.744zM192.24 341.568h79.84v-21.744h-79.84v21.744zM431.008 341.568h79.84v-21.744h-79.84v21.744zM453.44 213.184h57.424v-21.744h-57.424v21.744zM198.016 213.184h57.408v-21.744h-57.408v21.744zM489.104 334.256h21.744v-141.024h-21.744v141.024zM192.24 334.256h21.744v-142.816h-21.744v142.816z" />
<glyph unicode="&#xe611;" d="M152.224 461.584l-152.224-94.832 104.288-87.424 151.68 98.528-103.744 83.728zM348.016 59.184c-2.736 0-5.424 0.928-7.616 2.768l-84.432 70.016-84.432-70.048c-2.192-1.808-4.896-2.768-7.6-2.768-2.272 0-4.544 0.624-6.512 1.92l-62.56 40.96v-24.192l161.088-101.424 161.088 101.456v24.192l-62.544-40.96c-1.952-1.296-4.208-1.92-6.48-1.92v0zM511.92 366.752l-152.192 94.816-103.76-83.712 151.664-98.496 104.288 87.392zM255.968 184.56l94.032-78.080 150.432 98.352-92.8 74.48-151.664-94.752zM161.936 106.512l94.032 78.080-151.664 94.768-92.784-74.512 150.416-98.336z" />
<glyph unicode="&#xe612;" d="M279.533 448c0 0-100.478 0-133.97 0-60.060 0-116.585-45.503-116.585-98.211 0-53.863 40.941-97.333 102.044-97.333 4.249 0 8.378 0.085 12.421 0.376-3.965-7.593-6.801-16.144-6.801-25.021 0-14.969 8.052-27.105 18.234-37.012-7.693 0-15.121-0.224-23.226-0.224-74.391 0.001-131.65-47.379-131.65-96.51 0-48.389 62.771-78.657 137.167-78.657 84.812 0 131.653 48.122 131.653 96.514 0 38.8-11.448 62.036-46.843 87.067-12.108 8.572-35.265 29.418-35.265 41.672 0 14.36 4.098 21.434 25.714 38.323 22.156 17.312 37.836 41.651 37.836 69.958 0 33.703-15.010 66.549-43.186 77.386h42.477l29.98 21.672zM232.74 120.271c1.063-4.486 1.642-9.103 1.642-13.814 0-39.1-25.196-69.655-97.487-69.655-51.421 0-88.558 32.552-88.558 71.65 0 38.321 46.063 70.222 97.482 69.666 12-0.127 23.184-2.058 33.335-5.345 27.913-19.413 47.938-30.381 53.586-52.502zM150.409 266.112c-34.519 1.032-67.318 38.613-73.276 83.93-5.958 45.333 17.185 80.021 51.694 78.995 34.505-1.037 67.319-37.407 73.279-82.729 5.953-45.33-17.195-81.229-51.697-80.196zM416 352v96h-32v-96h-96v-32h96v-96h32v96h96v32z" />
<glyph unicode="&#xe613;" d="M288.016 256l-0.001-117.092c0-29.709-0.385-46.828 2.765-55.25 3.125-8.377 10.959-17.073 19.495-22.101 11.342-6.794 24.271-10.188 38.854-10.188 25.927 0 41.239 3.424 66.871 20.27v-76.972c-21.85-10.276-40.933-16.297-58.662-20.461-17.75-4.121-36.93-6.203-57.532-6.203-23.414 0-37.228 2.943-55.205 8.828-17.979 5.934-33.33 14.403-46.010 25.27-12.725 10.961-21.511 22.604-26.424 34.916-4.913 12.318-7.358 30.207-7.358 53.622v179.55h-68.713v72.503c20.104 6.521 42.582 15.894 56.89 28.076 14.377 12.225 25.883 26.853 34.553 43.972 8.696 17.073 14.674 38.856 17.936 65.258h82.542l-0.001-127.998h127.984v-96h-127.984z" />
<glyph unicode="&#xe615;" d="M480 480h-448c-17.688 0-32-14.312-32-32v-448c0-17.688 14.312-32 32-32h448c17.688 0 32 14.312 32 32v448c0 17.688-14.312 32-32 32zM192 224c0 0 5.062 64 64 64s64-64 64-64 1.844-64-64-64-64 64-64 64zM448 32h-384v224h68.531c-2.656-10.281-4.531-20.875-4.531-32 0-70.688 57.312-128 128-128s128 57.312 128 128c0 11.125-1.875 21.719-4.531 32h68.531v-224zM448 320h-96v96h96v-96z" />
<glyph unicode="&#xe616;" d="M511.52 59.744c0-25.12-20.576-45.664-45.696-45.664h-420.176c-25.136 0.016-45.648 20.544-45.648 45.664v310.576c0 25.12 20.512 45.68 45.648 45.68h420.16c25.12 0 45.696-20.56 45.696-45.68v-310.576zM465.808 379.472h-420.16c-4.88 0-9.12-4.288-9.12-9.152 0-32.544 16.224-60.768 41.952-81.056 38.24-29.984 76.496-60.224 114.416-90.48 15.152-12.256 42.544-38.56 62.512-38.56h0.592c20 0 47.424 26.32 62.496 38.56 37.968 30.256 76.256 60.496 114.512 90.48 18.544 14.56 41.968 46.256 41.968 70.48 0 7.168 1.68 19.728-9.168 19.728zM474.976 279.008c-5.984-6.864-12.56-13.152-19.728-18.848-40.8-31.408-81.872-63.408-121.6-96.512-21.376-17.984-47.952-39.968-77.648-39.968h-0.576c-29.648 0-56.224 21.968-77.648 39.968-39.664 33.088-80.72 65.104-121.6 96.512-7.104 5.68-13.648 11.984-19.648 18.848v-219.264c0-4.816 4.24-9.12 9.12-9.12h420.16c4.848 0 9.152 4.32 9.152 9.12v219.264z" />
<glyph unicode="&#xe617;" d="M478.944-15.552l-211.824 488.496c-1.856 4.288-6.096 7.056-10.768 7.056s-8.912-2.768-10.752-7.040l-212.544-488.496c-1.584-3.664-1.216-7.84 0.96-11.152 2.176-3.296 5.856-5.312 9.808-5.312h180.176v106.688l-63.984 21.328c-8.848 0-16 7.152-16 16s7.152 16 16 16l63.984-21.328v101.312c0 8.848 7.152 16 16 16h32c8.848 0 16-7.152 16-16v-24l47.984 24c8.848 0 16-7.152 16-16s-7.152-16-16-16l-47.984-23.984v-56l79.984 48c8.848 0 16-7.152 16-16s-7.152-16-16-16l-79.984-48v-96.016h180.176c3.968 0 7.648 2 9.808 5.312 2.176 3.296 2.512 7.504 0.96 11.136z" />
<glyph unicode="&#xe618;" d="M487.655 191.031c1.406 10.4 2.215 20.973 2.215 31.736 0 129.155-105.271 233.872-235.103 233.872-12.904 0-25.555-1.060-37.866-3.080-22.072 14.384-48.342 22.767-76.612 22.767-77.523 0-140.289-62.808-140.289-140.306 0-28.198 8.299-54.394 22.59-76.389-1.925-12.017-2.909-24.323-2.909-36.859 0-129.176 105.217-233.882 235.085-233.882 14.657 0 28.927 1.427 42.796 3.933 21.55-13.369 46.934-21.148 74.146-21.148 77.502-0.001 140.292 62.823 140.292 140.313-0.003 29.293-8.96 56.528-24.345 79.043zM276.74 50.404c-74.705-3.892-109.664 12.637-141.689 42.691-35.765 33.567-21.398 71.854 7.74 73.801 29.122 1.944 46.607-33.013 62.15-42.736 15.524-9.688 74.594-31.76 105.794 3.908 33.976 38.828-22.594 58.92-64.059 65.002-59.203 8.766-133.95 40.792-128.135 103.907 5.816 63.074 53.582 95.414 103.85 99.976 64.077 5.817 105.791-9.707 138.785-37.86 38.15-32.529 17.508-68.894-6.799-71.82-24.212-2.909-51.404 53.504-104.791 54.352-55.027 0.864-92.217-57.261-24.286-73.784 67.966-16.505 140.75-23.286 166.961-85.417 26.229-62.137-40.754-128.125-115.521-132.020z" />
<glyph unicode="&#xe619;" d="M476.698 442.679l-2.014 2.021c-47.074 47.067-124.097 47.067-171.163 0l-109.053-109.068c-47.067-47.066-47.067-124.088 0-171.155l2.013-2.013c3.916-3.924 8.073-7.462 12.368-10.729l39.924 39.925c-4.651 2.747-9.063 6.036-13.058 10.030l-2.021 2.021c-25.557 25.549-25.557 67.136 0 92.695l109.064 109.056c25.558 25.559 67.137 25.559 92.693 0l2.021-2.012c25.55-25.558 25.55-67.146 0-92.695l-49.343-49.343c8.566-21.154 12.624-43.7 12.269-66.193l76.302 76.302c47.067 47.068 47.067 124.089-0.002 171.158zM315.521 285.533c-3.916 3.916-8.073 7.461-12.368 10.72l-39.924-39.916c4.652-2.748 9.063-6.037 13.058-10.031l2.021-2.020c25.558-25.558 25.558-67.136 0-92.694l-109.065-109.067c-25.559-25.551-67.138-25.551-92.694 0l-2.021 2.021c-25.549 25.56-25.549 67.138 0 92.694l49.344 49.343c-8.567 21.153-12.623 43.701-12.269 66.193l-76.301-76.299c-47.068-47.066-47.068-124.089 0-171.162l2.013-2.016c47.076-47.064 124.096-47.064 171.164 0l109.055 109.059c47.067 47.066 47.067 124.097 0 171.163l-2.013 2.012z" />
<glyph unicode="&#xe61a;" d="M444.683 111.040c-22.4 29.227-49.493 48.213-88.309 58.976l-36.374-127.349c0-11.733-9.6-21.333-21.333-21.333s-21.333 9.6-21.333 21.333v101.333c0 14.72-11.947 26.667-26.667 26.667s-26.667-11.947-26.667-26.667v-101.333c0-11.733-9.6-21.333-21.333-21.333s-21.333 9.6-21.333 21.333l-36.373 127.349c-38.827-10.88-65.92-29.749-88.32-58.976-8.854-11.52-13.654-34.667-13.974-47.040v-53.333c0-23.573 19.093-42.667 42.667-42.667h330.667c23.573 0 42.667 19.093 42.667 42.667v53.333c-0.321 12.373-5.121 35.52-13.985 47.040zM250.667 213.333c71.893 0 112 91.52 112 153.814s-50.134 112.853-112 112.853-112-50.56-112-112.853 38.826-153.814 112-153.814z" />
<glyph unicode="&#xe61b;" d="M444.683 111.040c-12.48 16.309-26.443 29.44-43.2 39.776-25.91-57.483-83.723-97.483-150.816-97.483s-124.907 40-150.837 97.493c-16.64-10.347-30.709-23.467-43.189-39.776-8.854-11.53-13.665-34.677-13.974-47.050 0.107-3.2 0-53.333 0-53.333 0-23.573 19.093-42.667 42.667-42.667h330.667c23.573 0 42.667 19.093 42.667 42.667 0 0-0.107 50.133 0 53.333-0.321 12.373-5.121 35.52-13.985 47.040zM192.736 178.667c-8.949-0.96-17.493-2.133-25.589-3.52-9.28-2.347-16.32-10.773-16.32-20.8 0-4.16 1.173-7.883 3.2-11.2 22.4-28.694 57.376-47.147 96.64-47.147 38.293 0 72.427 17.493 94.933 44.907 2.976 3.627 4.683 8.32 4.683 13.44 0 10.453-7.573 19.2-17.6 21.013-8.309 1.504-17.067 2.784-26.443 3.744-12.053 2.229-21.12 10.763-21.12 23.563 0 11.733 8.736 20.683 20.48 22.187 1.163 0.213 3.936 0.309 3.936 0.309 57.397 4.064 96.437 15.691 122.133 37.877 3.531 3.733 5.664 8.747 5.664 14.293 0 11.093-8.427 20.16-19.2 21.227-31.68 6.4-55.466 32.64-55.466 64.107v4.48c0 62.293-50.134 112.853-112 112.853s-112-50.56-112-112.853v-4.48c0-31.467-23.787-57.707-55.467-64.107-10.773-1.067-19.2-10.133-19.2-21.227 0-5.547 2.133-10.56 5.643-14.293 25.824-22.187 64.853-33.813 122.357-37.877 1.707 0 3.317-0.107 4.8-0.309 11.936-1.707 19.403-10.24 19.403-22.187 0.010-13.654-10.219-22.4-23.467-24z" />
<glyph unicode="&#xe61c;" d="M389.094 256h-266.214c-14.157 0-15.36-11.469-15.36-25.6s1.203-25.6 15.36-25.6h266.214c14.157 0 15.385 11.469 15.385 25.6s-1.229 25.6-15.385 25.6z" />
<glyph unicode="&#xe61d;" d="M389.094 256h-107.52v107.52c0 14.131-11.443 15.36-25.6 15.36-14.131 0-25.6-1.203-25.6-15.36v-107.52h-107.495c-14.157 0-15.36-11.469-15.36-25.6s1.203-25.6 15.36-25.6h107.495v-107.52c0-14.131 11.469-15.36 25.6-15.36 14.157 0 25.6 1.229 25.6 15.36v107.52h107.52c14.157 0 15.385 11.469 15.385 25.6s-1.229 25.6-15.385 25.6z" />
<glyph unicode="&#xe61e;" d="M368.615 40.499c6.861-6.938 6.861-18.125 0-25.063s-17.945-6.938-24.807 0l-200.448 202.419c-6.861 6.938-6.861 18.151 0 25.063l200.448 202.445c6.861 6.938 17.945 6.938 24.807 0s6.861-18.125 0-25.063l-182.784-189.901 182.784-189.901z" />
<glyph unicode="&#xe61f;" d="M66.099 343.014c-6.938 6.861-18.151 6.861-25.063 0-6.912-6.835-6.912-17.946 0-24.807l202.445-200.448c6.938-6.861 18.125-6.861 25.063 0l202.445 200.448c6.912 6.861 6.938 17.945 0 24.806s-18.176 6.861-25.063 0.026l-189.927-182.81-189.901 182.784z" />
<glyph unicode="&#xe620;" d="M143.352 40.499c-6.861-6.938-6.861-18.125 0-25.063s17.946-6.938 24.806 0l200.448 202.419c6.861 6.938 6.861 18.151 0 25.063l-200.448 202.445c-6.861 6.938-17.946 6.938-24.806 0s-6.861-18.125 0-25.063l182.784-189.901-182.784-189.901z" />
<glyph unicode="&#xe621;" d="M73.373 169.373l160-160c12.496-12.497 32.758-12.497 45.255 0l160 160c12.496 12.497 12.496 32.758 0 45.255-12.497 12.497-32.758 12.497-45.255 0l-105.373-105.373v306.745c0 17.673-14.327 32-32 32s-32-14.327-32-32v-306.745l-105.373 105.373c-6.248 6.248-14.438 9.372-22.627 9.372s-16.379-3.124-22.627-9.372c-12.497-12.497-12.497-32.758 0-45.255z" />
<glyph unicode="&#xe622;" d="M416 416h-320c-52.8 0-96-43.2-96-96v-192c0-52.8 43.2-96 96-96h320c52.8 0 96 43.2 96 96v192c0 52.8-43.2 96-96 96zM192 96v256l160-128-160-128z" />
<glyph unicode="&#xe623;" d="M53.76 416c7.232 0 14.016-1.472 20.384-4.288 6.368-2.88 12.032-6.656 16.896-11.36 4.928-4.736 8.8-10.4 11.648-17.088 2.88-6.656 4.288-13.568 4.288-20.8 0-7.584-1.408-14.592-4.288-21.024-2.816-6.432-6.72-12.032-11.648-16.736-4.864-4.768-10.592-8.512-17.024-11.296-6.432-2.752-13.248-4.192-20.256-4.192-7.584 0-14.592 1.408-21.024 4.192-6.496 2.784-12.096 6.528-16.8 11.264-4.704 4.672-8.48 10.304-11.36 16.736-2.88 6.432-4.288 13.44-4.288 21.024 0 7.264 1.408 14.144 4.288 20.8 2.88 6.688 6.656 12.352 11.36 17.088 4.704 4.704 10.304 8.48 16.8 11.392 6.432 2.816 13.44 4.288 21.024 4.288zM53.76 261.536c7.232 0 14.016-1.408 20.384-4.288 6.368-2.816 12.032-6.688 16.896-11.36 4.928-4.672 8.8-10.4 11.648-17.024 2.88-6.688 4.288-13.568 4.288-20.8 0-7.584-1.408-14.592-4.288-21.024-2.816-6.528-6.72-12.128-11.648-16.8-4.864-4.672-10.592-8.544-17.024-11.36-6.432-2.88-13.248-4.32-20.256-4.32-7.584 0-14.592 1.44-21.024 4.32-6.496 2.816-12.096 6.656-16.8 11.328-4.704 4.704-8.48 10.304-11.36 16.832-2.88 6.432-4.288 13.44-4.288 21.024 0 7.232 1.408 14.112 4.288 20.8 2.88 6.624 6.656 12.32 11.36 17.024 4.704 4.704 10.304 8.544 16.8 11.392 6.432 2.848 13.44 4.256 21.024 4.256zM53.76 106.912c7.232 0 14.016-1.44 20.384-4.192 6.368-2.784 12.032-6.56 16.896-11.264 4.928-4.672 8.8-10.368 11.648-17.056 2.88-6.624 4.288-13.568 4.288-20.736 0-7.552-1.408-14.656-4.288-21.088-2.816-6.496-6.72-12.064-11.648-16.768-4.864-4.672-10.592-8.512-17.024-11.328-6.432-2.88-13.248-4.32-20.256-4.32-14.752 0-27.36 5.184-37.824 15.616-10.464 10.464-15.68 23.072-15.68 37.888 0 7.2 1.408 14.112 4.288 20.736 2.88 6.688 6.656 12.384 11.36 17.056 4.672 4.672 10.304 8.48 16.8 11.264 6.464 2.752 13.472 4.192 21.056 4.192zM490.144 399.904c5.728 0 10.656-2.048 14.816-6.24 4.192-4.16 6.272-9.28 6.272-15.36v-31.616c0-6.112-2.080-11.264-6.272-15.36-4.16-4.128-9.088-6.208-14.816-6.208h-323.552c-6.080 0-11.2 2.080-15.36 6.208-4.128 4.128-6.208 9.28-6.208 15.36v31.616c0 6.080 2.080 11.2 6.208 15.36 4.192 4.192 9.28 6.24 15.36 6.24h323.552zM490.144 245.472c5.728 0 10.656-2.080 14.816-6.208 4.192-4.192 6.272-9.344 6.272-15.392v-31.616c0-6.112-2.080-11.264-6.272-15.424-4.16-4.128-9.088-6.208-14.816-6.208h-323.552c-6.080 0-11.2 2.080-15.36 6.208-4.128 4.192-6.24 9.312-6.24 15.456v31.616c0 6.048 2.080 11.2 6.208 15.392 4.192 4.096 9.28 6.208 15.36 6.208l323.584-0.032zM490.144 91.040c5.728 0 10.656-2.080 14.816-6.208 4.192-4.128 6.272-9.28 6.272-15.328v-31.616c0-6.112-2.080-11.2-6.272-15.136-4.16-3.968-9.088-5.952-14.816-5.952h-323.552c-6.080 0-11.2 1.984-15.36 5.952-4.128 3.936-6.208 8.992-6.208 15.136v31.616c0 6.048 2.080 11.232 6.208 15.328 4.192 4.128 9.28 6.208 15.36 6.208h323.552z" />
<glyph unicode="&#xe624;" d="M0 416v-416h512v416h-512zM480 32h-448v352h448v-352zM352 304c0 26.51 21.49 48 48 48s48-21.49 48-48c0-26.51-21.49-48-48-48-26.51 0-48 21.49-48 48zM448 64h-384l96 256 128-160 64 48z" />
<glyph unicode="&#xe625;" d="M64 352v-320h448v320h-448zM480 85.333l-64 106.667-72.533-60.444-55.467 92.444-192-160v256h384v-234.667zM128 240c0 26.51 21.49 48 48 48s48-21.49 48-48c0-26.51-21.49-48-48-48-26.51 0-48 21.49-48 48zM448 416h-448v-320h32v288h416z" />
<glyph unicode="&#xe626;" d="M179.904 192.144v84.272c-57.744-16-79.056-50.896-85.312-84.272h85.312zM248.384 369.008v-45.648c2.512 0.032 5.088 0.064 7.616 0.064 70.416 0 134.16-17.456 180.304-45.68 46.096-28.24 74.656-67.28 74.656-110.336 0-8.688-1.168-17.232-3.408-25.552h-243.92v128.224c27.904-0.528 50.384-3.952 68.464-9.44v-68.496h85.312c-8.48 45.232-44.64 93.216-161.392 93.216-2.56 0-5.136-0.032-7.616-0.064v-143.408h-243.968c-2.208 8.32-3.392 16.848-3.392 25.552 0 43.040 28.56 82.064 74.672 110.304 28.752 17.616 64.352 31.008 104.192 38.608v46.4c22.064 3.76 45.024 5.92 68.48 6.256z" />
<glyph unicode="&#xe627;" d="M112.5 256c61.856 0 112-50.145 112-112 0-61.856-50.144-112-112-112-61.856 0-112 50.144-112 112l-0.5 16c0 123.712 100.288 224 224 224v-64c-42.737 0-82.917-16.643-113.137-46.863-5.817-5.818-11.126-12.008-15.915-18.51 5.719 0.9 11.58 1.373 17.552 1.373zM400.5 256c61.855 0 112-50.145 112-112 0-61.856-50.145-112-112-112-61.855 0-112 50.144-112 112l-0.5 16c0 123.712 100.288 224 224 224v-64c-42.737 0-82.917-16.643-113.137-46.863-5.818-5.818-11.127-12.008-15.916-18.51 5.72 0.9 11.58 1.373 17.553 1.373z" />
<glyph unicode="&#xe628;" d="M64 384v-352h352v352h-352zM128 64h-32v32h32v-32zM128 112h-32v32h32v-32zM128 160h-32v32h32v-32zM128 224h-32v32h32v-32zM128 272h-32v32h32v-32zM128 320h-32v32h32v-32zM320 64h-160v128h160v-128zM320 224h-160v128h160v-128zM384 64h-32v32h32v-32zM384 112h-32v32h32v-32zM384 160h-32v32h32v-32zM384 224h-32v32h32v-32zM384 272h-32v32h32v-32zM384 320h-32v32h32v-32z" />
<glyph unicode="&#xe629;" d="M96 190.857v-221.715c5.227-0.748 10.567-1.143 16-1.143h16v224.001h-16c-5.433 0-10.773-0.395-16-1.143zM384 192v-224h16c5.434 0 10.773 0.395 16 1.143v221.714c-5.227 0.748-10.566 1.143-16 1.143h-16zM512 224c0 141.385-114.615 256-256 256s-256-114.615-256-256c0-30.709 5.414-60.153 15.328-87.437-9.736-16.601-15.328-35.926-15.328-56.563 0-44.677 26.163-83.239 64-101.216v202.432c-10.063-4.781-19.29-11.030-27.429-18.452-2.996 14.61-4.571 29.739-4.571 45.236 0 123.712 100.288 224 224 224s224-100.288 224-224c0-15.497-1.574-30.626-4.571-45.236-8.14 7.422-17.365 13.671-27.429 18.452v-202.432c37.838 17.977 64 56.539 64 101.216 0 20.637-5.592 39.962-15.328 56.563 9.914 27.284 15.328 56.728 15.328 87.437z" />
<glyph unicode="&#xe62a;" d="M240 416c-25.333 0-49.791-3.975-72.693-11.814-21.462-7.347-40.557-17.718-56.751-30.823-30.022-24.295-46.556-55.401-46.556-87.587 0-17.995 5.033-35.474 14.96-51.949 10.343-17.17 25.949-32.897 45.13-45.479 15.22-9.984 25.468-25.976 28.181-43.975 0.451-2.995 0.815-6.003 1.090-9.016 1.361 1.26 2.712 2.557 4.057 3.897 12.069 12.020 28.344 18.656 45.161 18.656 2.674 0 5.359-0.168 8.047-0.509 9.68-1.226 19.562-1.848 29.374-1.848 25.333 0 49.79 3.974 72.692 11.814 21.463 7.346 40.558 17.717 56.752 30.822 30.023 24.295 46.556 55.401 46.556 87.587 0 32.186-16.533 63.291-46.556 87.587-16.194 13.106-35.289 23.476-56.752 30.823-22.902 7.839-47.359 11.814-72.692 11.814zM240 480v0c132.548 0 240-86.957 240-194.224s-107.452-194.224-240-194.224c-12.729 0-25.223 0.81-37.417 2.355-51.553-51.347-111.086-60.554-170.583-61.907v12.567c32.126 15.677 58 44.233 58 76.867 0 4.553-0.356 9.024-1.015 13.397-54.279 35.607-88.985 89.994-88.985 150.945 0 107.267 107.452 194.224 240 194.224zM498 44.657c0-27.971 18.157-52.449 46-65.886v-10.771c-51.563 1.159-98.893 9.051-143.571 53.063-10.57-1.325-21.397-2.020-32.429-2.020-47.735 0-91.704 12.879-126.807 34.52 72.337 0.253 140.63 23.427 192.417 65.336 26.104 21.126 46.697 45.913 61.207 73.674 15.383 29.433 23.183 60.791 23.183 93.203 0 5.224-0.225 10.418-0.629 15.584 36.285-29.967 58.629-70.811 58.629-115.838 0-52.244-30.079-98.861-77.12-129.382-0.571-3.748-0.88-7.58-0.88-11.483z" horiz-adv-x="576" />
<glyph unicode="&#xf002;" d="M329.143 237.714q0 52.857-37.572 90.428t-90.428 37.571-90.428-37.571-37.572-90.428 37.572-90.428 90.428-37.572 90.428 37.572 37.572 90.428zM475.428 0q0-14.857-10.857-25.714t-25.714-10.857q-15.428 0-25.714 10.857l-98 97.714q-51.143-35.428-114-35.428-40.857 0-78.143 15.857t-64.285 42.857-42.857 64.286-15.857 78.143 15.857 78.143 42.857 64.285 64.285 42.857 78.143 15.857 78.143-15.857 64.286-42.857 42.857-64.285 15.857-78.143q0-62.857-35.428-114l98-98q10.572-10.572 10.572-25.714z" horiz-adv-x="476" />
<glyph unicode="&#xf005;" d="M475.428 290.572q0-6.286-7.428-13.714l-103.714-101.143 24.572-142.857q0.286-2 0.286-5.714 0-6-3-10.143t-8.714-4.143q-5.428 0-11.428 3.428l-128.286 67.428-128.286-67.428q-6.285-3.428-11.428-3.428-6 0-9 4.143t-3 10.143q0 1.714 0.572 5.714l24.572 142.857-104 101.143q-7.143 7.714-7.143 13.714 0 10.572 16 13.143l143.428 20.857 64.286 130q5.428 11.714 14 11.714t14-11.714l64.286-130 143.429-20.857q16-2.572 16-13.143z" horiz-adv-x="476" />
<glyph unicode="&#xf006;" d="M324.857 188.572l87.428 84.857-120.572 17.715-54 109.143-54-109.143-120.572-17.714 87.428-84.857-20.857-120.286 108 56.857 107.714-56.857zM475.428 290.572q0-6.286-7.428-13.714l-103.714-101.143 24.572-142.857q0.286-2 0.286-5.714 0-14.286-11.714-14.286-5.428 0-11.428 3.428l-128.286 67.428-128.286-67.428q-6.285-3.428-11.428-3.428-6 0-9 4.143t-3 10.143q0 1.714 0.572 5.714l24.572 142.857-104 101.143q-7.143 7.714-7.143 13.714 0 10.572 16 13.143l143.428 20.857 64.286 130q5.428 11.714 14 11.714t14-11.714l64.286-130 143.429-20.857q16-2.572 16-13.143z" horiz-adv-x="476" />
<glyph unicode="&#xf013;" d="M292.572 219.429q0 30.286-21.428 51.714t-51.714 21.428-51.714-21.428-21.428-51.714 21.428-51.714 51.714-21.428 51.714 21.428 21.428 51.714zM438.857 250.572v-63.428q0-3.428-2.286-6.572t-5.714-3.714l-52.857-8q-5.428-15.428-11.143-26 10-14.286 30.572-39.428 2.857-3.428 2.857-7.143t-2.572-6.572q-7.714-10.572-28.286-30.857t-26.857-20.286q-3.428 0-7.428 2.572l-39.428 30.857q-12.572-6.572-26-10.857-4.572-38.857-8.286-53.143-2-8-10.286-8h-63.428q-4 0-7 2.428t-3.286 6.143l-8 52.572q-14 4.572-25.714 10.572l-40.285-30.572q-2.857-2.572-7.143-2.572-4 0-7.143 3.143-36 32.572-47.143 48-2 2.857-2 6.572 0 3.428 2.285 6.572 4.285 6 14.572 19t15.428 20.143q-7.715 14.286-11.715 28.286l-52.285 7.714q-3.715 0.572-6 3.572t-2.285 6.714v63.428q0 3.428 2.285 6.572t5.428 3.714l53.143 8q4 13.143 11.143 26.286-11.428 16.286-30.572 39.428-2.857 3.428-2.857 6.857 0 2.857 2.572 6.572 7.428 10.286 28.143 30.714t27 20.428q3.715 0 7.428-2.857l39.428-30.572q12.572 6.572 26 10.857 4.572 38.857 8.286 53.143 2 8 10.286 8h63.428q4 0 7-2.428t3.286-6.143l8-52.571q14-4.572 25.714-10.572l40.572 30.572q2.572 2.571 6.857 2.571 3.714 0 7.143-2.857 36.857-34 47.143-48.572 2-2.286 2-6.286 0-3.428-2.286-6.571-4.286-6-14.572-19t-15.428-20.143q7.428-14.286 11.714-28l52.286-8q3.714-0.571 6-3.571t2.286-6.714z" />
<glyph unicode="&#xf046;" d="M402.286 209.714v-90.857q0-34-24.143-58.143t-58.143-24.143h-237.714q-34 0-58.143 24.143t-24.143 58.143v237.714q0 34 24.143 58.143t58.143 24.143h237.714q18 0 33.428-7.143 4.286-2 5.143-6.572 0.857-4.857-2.572-8.285l-14-14q-2.857-2.857-6.572-2.857-0.857 0-2.572 0.572-6.572 1.714-12.857 1.714h-237.714q-18.857 0-32.285-13.428t-13.428-32.286v-237.714q0-18.857 13.428-32.286t32.285-13.428h237.714q18.857 0 32.286 13.428t13.428 32.286v72.572q0 3.714 2.572 6.286l18.286 18.286q2.857 2.857 6.572 2.857 1.714 0 3.428-0.857 5.714-2.286 5.714-8.286zM468.286 349.429l-232.571-232.572q-6.857-6.857-16.285-6.857t-16.286 6.857l-122.857 122.857q-6.857 6.857-6.857 16.286t6.857 16.286l31.428 31.428q6.857 6.857 16.285 6.857t16.285-6.857l75.143-75.143 184.857 184.857q6.857 6.857 16.286 6.857t16.286-6.857l31.428-31.429q6.857-6.857 6.857-16.285t-6.857-16.286z" horiz-adv-x="476" />
<glyph unicode="&#xf05d;" d="M334.572 243.143l-120.572-120.572q-5.428-5.428-12.857-5.428t-12.857 5.428l-84 84q-5.428 5.428-5.428 12.857t5.428 12.857l29.143 29.143q5.429 5.428 12.857 5.428t12.857-5.428l42-42 78.571 78.572q5.428 5.428 12.857 5.428t12.857-5.428l29.143-29.143q5.428-5.428 5.428-12.857t-5.428-12.857zM374.857 219.429q0 42.286-20.857 78t-56.572 56.572-78 20.857-78-20.857-56.572-56.572-20.857-78 20.857-78 56.572-56.572 78-20.857 78 20.857 56.572 56.572 20.857 78zM438.857 219.429q0-59.714-29.428-110.143t-79.857-79.857-110.143-29.428-110.143 29.428-79.857 79.857-29.428 110.143 29.428 110.143 79.857 79.857 110.143 29.428 110.143-29.428 79.857-79.857 29.428-110.143z" />
<glyph unicode="&#xf07a;" d="M182.857 36.572q0-15.143-10.714-25.857t-25.857-10.714-25.857 10.714-10.715 25.857 10.715 25.857 25.857 10.714 25.857-10.714 10.714-25.857zM438.857 36.572q0-15.143-10.714-25.857t-25.857-10.714-25.857 10.714-10.714 25.857 10.714 25.857 25.857 10.714 25.857-10.714 10.714-25.857zM475.428 347.429v-146.286q0-6.857-4.572-12.143t-11.714-6.143l-298.286-34.857q0.286-2 1.286-6.143t1.714-7.572 0.714-6.286q0-4.572-6.857-18.286h262.857q7.428 0 12.857-5.428t5.428-12.857-5.428-12.857-12.857-5.428h-292.572q-7.428 0-12.857 5.428t-5.428 12.857q0 4 3.143 11.286t8.428 17 5.857 10.857l-50.572 235.143h-58.285q-7.428 0-12.857 5.429t-5.428 12.857 5.428 12.857 12.857 5.429h73.143q4.572 0 8.143-1.857t5.715-4.428 3.715-7 2.143-7.572 1.572-8.428 1.285-7.286h343.143q7.428 0 12.857-5.428t5.428-12.857z" horiz-adv-x="476" />
<glyph unicode="&#xf0c9;" d="M438.857 91.429v-36.572q0-7.428-5.428-12.857t-12.857-5.428h-402.286q-7.428 0-12.857 5.428t-5.428 12.857v36.572q0 7.428 5.428 12.857t12.857 5.428h402.286q7.428 0 12.857-5.428t5.428-12.857zM438.857 237.714v-36.572q0-7.428-5.428-12.857t-12.857-5.428h-402.286q-7.428 0-12.857 5.428t-5.428 12.857v36.572q0 7.428 5.428 12.857t12.857 5.429h402.286q7.428 0 12.857-5.428t5.428-12.857zM438.857 384v-36.572q0-7.428-5.428-12.857t-12.857-5.428h-402.286q-7.428 0-12.857 5.428t-5.428 12.857v36.572q0 7.428 5.428 12.857t12.857 5.428h402.286q7.428 0 12.857-5.428t5.428-12.857z" />
<glyph unicode="&#xf0d9;" d="M182.857 347.429v-256q0-7.428-5.429-12.857t-12.857-5.428-12.857 5.428l-128 128q-5.428 5.428-5.428 12.857t5.428 12.857l128 128q5.428 5.428 12.857 5.428t12.857-5.428 5.428-12.857z" horiz-adv-x="183" />
<glyph unicode="&#xf0da;" d="M164.571 219.429q0-7.428-5.429-12.857l-128-128q-5.428-5.428-12.857-5.428t-12.857 5.428-5.428 12.857v256q0 7.428 5.428 12.857t12.857 5.428 12.857-5.428l128-128q5.428-5.428 5.428-12.857z" horiz-adv-x="183" />
<glyph unicode="&#xf104;" d="M179.143 320q0-3.714-2.857-6.571l-112.285-112.286 112.285-112.286q2.857-2.857 2.857-6.572t-2.857-6.572l-14.286-14.286q-2.857-2.857-6.572-2.857t-6.572 2.857l-133.143 133.143q-2.857 2.857-2.857 6.572t2.857 6.572l133.143 133.143q2.857 2.857 6.572 2.857t6.572-2.857l14.286-14.286q2.857-2.857 2.857-6.571z" horiz-adv-x="183" />
<glyph unicode="&#xf105;" d="M170 201.143q0-3.714-2.857-6.572l-133.143-133.143q-2.857-2.857-6.572-2.857t-6.572 2.857l-14.286 14.286q-2.857 2.857-2.857 6.572t2.857 6.572l112.285 112.286-112.285 112.286q-2.857 2.857-2.857 6.572t2.857 6.572l14.285 14.286q2.857 2.857 6.572 2.857t6.572-2.857l133.143-133.143q2.857-2.857 2.857-6.572z" horiz-adv-x="183" />
<glyph unicode="&#xf106;" d="M307.143 137.143q0-3.714-2.857-6.572l-14.286-14.286q-2.857-2.857-6.572-2.857t-6.572 2.857l-112.286 112.286-112.285-112.286q-2.857-2.857-6.572-2.857t-6.572 2.857l-14.285 14.286q-2.857 2.857-2.857 6.572t2.857 6.572l133.143 133.143q2.857 2.857 6.571 2.857t6.572-2.857l133.143-133.143q2.857-2.857 2.857-6.572z" horiz-adv-x="329" />
<glyph unicode="&#xf110;" d="M141.714 91.429q0-17.143-12.143-29.143t-29-12q-17.143 0-29.143 12t-12 29.143 12 29.143 29.143 12q16.857 0 29-12t12.143-29.143zM265.143 36.572q0-15.143-10.714-25.857t-25.857-10.714-25.857 10.714-10.714 25.857 10.714 25.857 25.857 10.714 25.857-10.714 10.714-25.857zM91.428 219.429q0-18.857-13.428-32.286t-32.285-13.428-32.285 13.428-13.428 32.286 13.428 32.286 32.285 13.428 32.285-13.428 13.428-32.286zM388.572 91.429q0-13.143-9.428-22.572t-22.572-9.428-22.572 9.428-9.428 22.572 9.428 22.572 22.572 9.428 22.572-9.428 9.428-22.572zM150.857 347.429q0-20.857-14.714-35.572t-35.572-14.714-35.572 14.714-14.715 35.572 14.715 35.572 35.572 14.714 35.572-14.714 14.714-35.572zM283.428 402.286q0-22.857-16-38.857t-38.857-16-38.857 16-16 38.857 16 38.857 38.857 16 38.857-16 16-38.857zM438.857 219.429q0-11.428-8-19.428t-19.428-8-19.428 8-8 19.428 8 19.428 19.428 8 19.428-8 8-19.428zM379.428 347.429q0-9.428-6.714-16.143t-16.143-6.714-16.143 6.714-6.714 16.143 6.714 16.143 16.143 6.714 16.143-6.714 6.714-16.143z" horiz-adv-x="448" />
<glyph unicode="&#xf189;" d="M547.715 326.857q6.572-18.285-42.857-84-6.857-9.143-18.572-24.285-22.286-28.572-25.714-37.428-4.857-11.714 4-23.143 4.857-6 23.143-23.428h0.286l1.143-1.143q40.285-37.428 54.572-63.143 0.857-1.428 1.857-3.572t2-7.572-0.143-9.714-7.143-7.857-16.857-3.572l-73.143-1.143q-6.857-1.428-16 1.428t-14.857 6.286l-5.714 3.428q-8.572 6-20 18.286t-19.572 22.143-17.428 16.572-16.143 4.428q-0.857-0.286-2.286-1t-4.857-4.143-6.143-8.428-4.857-14.857-1.857-22.143q0-4.286-1-7.857t-2.143-5.286l-1.143-1.428q-5.143-5.428-15.143-6.286h-32.857q-20.286-1.143-41.714 4.714t-37.572 15.143-29.428 18.857-20.143 16.428l-7.143 6.857q-2.857 2.857-7.857 8.572t-20.428 26-30.285 43.143-35 60.286-37.285 77.714q-1.714 4.572-1.714 7.714t0.857 4.572l1.143 1.714q4.285 5.428 16.285 5.428l78.285 0.571q3.428-0.571 6.572-1.857t4.572-2.429l1.428-0.857q4.572-3.143 6.857-9.143 5.715-14.286 13.143-29.571t11.714-23.286l4.572-8.286q8.286-17.143 16-29.714t13.857-19.572 11.857-11 9.714-4 7.714 1.428q0.571 0.286 1.429 1.428t3.429 6.286 3.857 13.428 2.714 23.143 0 35.715q-0.571 11.428-2.571 20.857t-4 13.143l-1.714 3.428q-7.143 9.714-24.286 12.286-3.714 0.572 1.429 6.857 4.857 5.428 10.857 8.572 15.143 7.428 68.286 6.857 23.428-0.285 38.572-3.714 5.714-1.428 9.572-3.857t5.857-6.857 3-9.143 1-13-0.286-15.714-0.714-20.143-0.428-23.571q0-3.143-0.286-12t-0.143-13.714 1-11.572 3.286-11.143 6.428-7q2.286-0.572 4.857-1.143t7.428 3.143 10.857 9.857 14.857 19.143 19.428 30.715q17.143 29.714 30.572 64.286 1.143 2.857 2.857 5t3.143 3l1.143 0.857 1.428 0.714t3.714 0.857 5.714 0.143l82.286 0.572q11.143 1.428 18.285-0.714t8.857-4.714z" horiz-adv-x="549" />
</font></defs></svg>